basic.vcd
$date
	Sat Feb 11 19:55:51 2023
$end
$version
	Icarus Verilog
$end
$timescale
	100ps
$end
$scope module regfile_tb $end
$var wire 32 ! data_readRegB [31:0] $end
$var wire 32 " data_readRegA [31:0] $end
$var reg 1 # clock $end
$var reg 5 $ ctrl_readRegA [4:0] $end
$var reg 5 % ctrl_readRegB [4:0] $end
$var reg 1 & ctrl_reset $end
$var reg 1 ' ctrl_writeEn $end
$var reg 5 ( ctrl_writeReg [4:0] $end
$var reg 32 ) data_writeReg [31:0] $end
$var reg 32 * exp_dataRegA [31:0] $end
$var reg 32 + exp_dataRegB [31:0] $end
$var reg 128 , testName [127:0] $end
$var integer 32 - actFile [31:0] $end
$var integer 32 . diffFile [31:0] $end
$var integer 32 / errors [31:0] $end
$var integer 32 0 expFile [31:0] $end
$var integer 32 1 expScan [31:0] $end
$var integer 32 2 tests [31:0] $end
$scope module tester $end
$var wire 1 # clock $end
$var wire 5 3 ctrl_readRegA [4:0] $end
$var wire 5 4 ctrl_readRegB [4:0] $end
$var wire 1 & ctrl_reset $end
$var wire 1 ' ctrl_writeEnable $end
$var wire 5 5 ctrl_writeReg [4:0] $end
$var wire 32 6 data_readRegA [31:0] $end
$var wire 32 7 data_readRegB [31:0] $end
$var wire 32 8 data_writeReg [31:0] $end
$var integer 32 9 i [31:0] $end
$upscope $end
$upscope $end
$enddefinitions $end
#0
$dumpvars
bx 9
b1 8
bx 7
bx 6
b0 5
b0 4
b0 3
b0 2
b1000 1
b10000000000000000000000000000011 0
b0 /
b10000000000000000000000000000101 .
b10000000000000000000000000000100 -
b110001001100001011100110110100101100011 ,
b0 +
b0 *
b1 )
b0 (
1'
0&
b0 %
b0 $
0#
bx "
bx !
$end
#50
b1 "
b1 6
b1 !
b1 7
1#
#100
b10 +
b10 *
bx !
bx 7
b1 %
b1 4
bx "
bx 6
b1 $
b1 3
b10 )
b10 8
b1 (
b1 5
b1 /
b1 2
0#
#150
b10 "
b10 6
b10 !
b10 7
1#
#200
b100 +
b100 *
bx !
bx 7
b10 %
b10 4
bx "
bx 6
b10 $
b10 3
b100 )
b100 8
b10 (
b10 5
b10 2
0#
#250
b100 "
b100 6
b100 !
b100 7
1#
#300
b1000 +
b1000 *
bx !
bx 7
b11 %
b11 4
bx "
bx 6
b11 $
b11 3
b1000 )
b1000 8
b11 (
b11 5
b11 2
0#
#350
b1000 "
b1000 6
b1000 !
b1000 7
1#
#400
b10000 +
b10000 *
bx !
bx 7
b100 %
b100 4
bx "
bx 6
b100 $
b100 3
b10000 )
b10000 8
b100 (
b100 5
b100 2
0#
#450
b10000 "
b10000 6
b10000 !
b10000 7
1#
#500
b100000 +
b100000 *
bx !
bx 7
b101 %
b101 4
bx "
bx 6
b101 $
b101 3
b100000 )
b100000 8
b101 (
b101 5
b101 2
0#
#550
b100000 "
b100000 6
b100000 !
b100000 7
1#
#600
b1000000 +
b1000000 *
bx !
bx 7
b110 %
b110 4
bx "
bx 6
b110 $
b110 3
b1000000 )
b1000000 8
b110 (
b110 5
b110 2
0#
#650
b1000000 "
b1000000 6
b1000000 !
b1000000 7
1#
#700
b10000000 +
b10000000 *
bx !
bx 7
b111 %
b111 4
bx "
bx 6
b111 $
b111 3
b10000000 )
b10000000 8
b111 (
b111 5
b111 2
0#
#750
b10000000 "
b10000000 6
b10000000 !
b10000000 7
1#
#800
b100000000 +
b100000000 *
bx !
bx 7
b1000 %
b1000 4
bx "
bx 6
b1000 $
b1000 3
b100000000 )
b100000000 8
b1000 (
b1000 5
b1000 2
0#
#850
b100000000 "
b100000000 6
b100000000 !
b100000000 7
1#
#900
b1000000000 +
b1000000000 *
bx !
bx 7
b1001 %
b1001 4
bx "
bx 6
b1001 $
b1001 3
b1000000000 )
b1000000000 8
b1001 (
b1001 5
b1001 2
0#
#950
b1000000000 "
b1000000000 6
b1000000000 !
b1000000000 7
1#
#1000
b10000000000 +
b10000000000 *
bx !
bx 7
b1010 %
b1010 4
bx "
bx 6
b1010 $
b1010 3
b10000000000 )
b10000000000 8
b1010 (
b1010 5
b1010 2
0#
#1050
b10000000000 "
b10000000000 6
b10000000000 !
b10000000000 7
1#
#1100
b100000000000 +
b100000000000 *
bx !
bx 7
b1011 %
b1011 4
bx "
bx 6
b1011 $
b1011 3
b100000000000 )
b100000000000 8
b1011 (
b1011 5
b1011 2
0#
#1150
b100000000000 "
b100000000000 6
b100000000000 !
b100000000000 7
1#
#1200
b1000000000000 +
b1000000000000 *
bx !
bx 7
b1100 %
b1100 4
bx "
bx 6
b1100 $
b1100 3
b1000000000000 )
b1000000000000 8
b1100 (
b1100 5
b1100 2
0#
#1250
b1000000000000 "
b1000000000000 6
b1000000000000 !
b1000000000000 7
1#
#1300
b10000000000000 +
b10000000000000 *
bx !
bx 7
b1101 %
b1101 4
bx "
bx 6
b1101 $
b1101 3
b10000000000000 )
b10000000000000 8
b1101 (
b1101 5
b1101 2
0#
#1350
b10000000000000 "
b10000000000000 6
b10000000000000 !
b10000000000000 7
1#
#1400
b100000000000000 +
b100000000000000 *
bx !
bx 7
b1110 %
b1110 4
bx "
bx 6
b1110 $
b1110 3
b100000000000000 )
b100000000000000 8
b1110 (
b1110 5
b1110 2
0#
#1450
b100000000000000 "
b100000000000000 6
b100000000000000 !
b100000000000000 7
1#
#1500
b1000000000000000 +
b1000000000000000 *
bx !
bx 7
b1111 %
b1111 4
bx "
bx 6
b1111 $
b1111 3
b1000000000000000 )
b1000000000000000 8
b1111 (
b1111 5
b1111 2
0#
#1550
b1000000000000000 "
b1000000000000000 6
b1000000000000000 !
b1000000000000000 7
1#
#1600
b10000000000000000 +
b10000000000000000 *
bx !
bx 7
b10000 %
b10000 4
bx "
bx 6
b10000 $
b10000 3
b10000000000000000 )
b10000000000000000 8
b10000 (
b10000 5
b10000 2
0#
#1650
b10000000000000000 "
b10000000000000000 6
b10000000000000000 !
b10000000000000000 7
1#
#1700
b100000000000000000 +
b100000000000000000 *
bx !
bx 7
b10001 %
b10001 4
bx "
bx 6
b10001 $
b10001 3
b100000000000000000 )
b100000000000000000 8
b10001 (
b10001 5
b10001 2
0#
#1750
b100000000000000000 "
b100000000000000000 6
b100000000000000000 !
b100000000000000000 7
1#
#1800
b1000000000000000000 +
b1000000000000000000 *
bx !
bx 7
b10010 %
b10010 4
bx "
bx 6
b10010 $
b10010 3
b1000000000000000000 )
b1000000000000000000 8
b10010 (
b10010 5
b10010 2
0#
#1850
b1000000000000000000 "
b1000000000000000000 6
b1000000000000000000 !
b1000000000000000000 7
1#
#1900
b10000000000000000000 +
b10000000000000000000 *
bx !
bx 7
b10011 %
b10011 4
bx "
bx 6
b10011 $
b10011 3
b10000000000000000000 )
b10000000000000000000 8
b10011 (
b10011 5
b10011 2
0#
#1950
b10000000000000000000 "
b10000000000000000000 6
b10000000000000000000 !
b10000000000000000000 7
1#
#2000
b100000000000000000000 +
b100000000000000000000 *
bx !
bx 7
b10100 %
b10100 4
bx "
bx 6
b10100 $
b10100 3
b100000000000000000000 )
b100000000000000000000 8
b10100 (
b10100 5
b10100 2
0#
#2050
b100000000000000000000 "
b100000000000000000000 6
b100000000000000000000 !
b100000000000000000000 7
1#
#2100
b1000000000000000000000 +
b1000000000000000000000 *
bx !
bx 7
b10101 %
b10101 4
bx "
bx 6
b10101 $
b10101 3
b1000000000000000000000 )
b1000000000000000000000 8
b10101 (
b10101 5
b10101 2
0#
#2150
b1000000000000000000000 "
b1000000000000000000000 6
b1000000000000000000000 !
b1000000000000000000000 7
1#
#2200
b10000000000000000000000 +
b10000000000000000000000 *
bx !
bx 7
b10110 %
b10110 4
bx "
bx 6
b10110 $
b10110 3
b10000000000000000000000 )
b10000000000000000000000 8
b10110 (
b10110 5
b10110 2
0#
#2250
b10000000000000000000000 "
b10000000000000000000000 6
b10000000000000000000000 !
b10000000000000000000000 7
1#
#2300
b100000000000000000000000 +
b100000000000000000000000 *
bx !
bx 7
b10111 %
b10111 4
bx "
bx 6
b10111 $
b10111 3
b100000000000000000000000 )
b100000000000000000000000 8
b10111 (
b10111 5
b10111 2
0#
#2350
b100000000000000000000000 "
b100000000000000000000000 6
b100000000000000000000000 !
b100000000000000000000000 7
1#
#2400
b1000000000000000000000000 +
b1000000000000000000000000 *
bx !
bx 7
b11000 %
b11000 4
bx "
bx 6
b11000 $
b11000 3
b1000000000000000000000000 )
b1000000000000000000000000 8
b11000 (
b11000 5
b11000 2
0#
#2450
b1000000000000000000000000 "
b1000000000000000000000000 6
b1000000000000000000000000 !
b1000000000000000000000000 7
1#
#2500
b10000000000000000000000000 +
b10000000000000000000000000 *
bx !
bx 7
b11001 %
b11001 4
bx "
bx 6
b11001 $
b11001 3
b10000000000000000000000000 )
b10000000000000000000000000 8
b11001 (
b11001 5
b11001 2
0#
#2550
b10000000000000000000000000 "
b10000000000000000000000000 6
b10000000000000000000000000 !
b10000000000000000000000000 7
1#
#2600
b100000000000000000000000000 +
b100000000000000000000000000 *
bx !
bx 7
b11010 %
b11010 4
bx "
bx 6
b11010 $
b11010 3
b100000000000000000000000000 )
b100000000000000000000000000 8
b11010 (
b11010 5
b11010 2
0#
#2650
b100000000000000000000000000 "
b100000000000000000000000000 6
b100000000000000000000000000 !
b100000000000000000000000000 7
1#
#2700
b1000000000000000000000000000 +
b1000000000000000000000000000 *
bx !
bx 7
b11011 %
b11011 4
bx "
bx 6
b11011 $
b11011 3
b1000000000000000000000000000 )
b1000000000000000000000000000 8
b11011 (
b11011 5
b11011 2
0#
#2750
b1000000000000000000000000000 "
b1000000000000000000000000000 6
b1000000000000000000000000000 !
b1000000000000000000000000000 7
1#
#2800
b10000000000000000000000000000 +
b10000000000000000000000000000 *
bx !
bx 7
b11100 %
b11100 4
bx "
bx 6
b11100 $
b11100 3
b10000000000000000000000000000 )
b10000000000000000000000000000 8
b11100 (
b11100 5
b11100 2
0#
#2850
b10000000000000000000000000000 "
b10000000000000000000000000000 6
b10000000000000000000000000000 !
b10000000000000000000000000000 7
1#
#2900
b100000000000000000000000000000 +
b100000000000000000000000000000 *
bx !
bx 7
b11101 %
b11101 4
bx "
bx 6
b11101 $
b11101 3
b100000000000000000000000000000 )
b100000000000000000000000000000 8
b11101 (
b11101 5
b11101 2
0#
#2950
b100000000000000000000000000000 "
b100000000000000000000000000000 6
b100000000000000000000000000000 !
b100000000000000000000000000000 7
1#
#3000
b1000000000000000000000000000000 +
b1000000000000000000000000000000 *
bx !
bx 7
b11110 %
b11110 4
bx "
bx 6
b11110 $
b11110 3
b1000000000000000000000000000000 )
b1000000000000000000000000000000 8
b11110 (
b11110 5
b11110 2
0#
#3050
b1000000000000000000000000000000 "
b1000000000000000000000000000000 6
b1000000000000000000000000000000 !
b1000000000000000000000000000000 7
1#
#3100
b10000000000000000000000000000000 +
b10000000000000000000000000000000 *
bx !
bx 7
b11111 %
b11111 4
bx "
bx 6
b11111 $
b11111 3
b10000000000000000000000000000000 )
b10000000000000000000000000000000 8
b11111 (
b11111 5
b11111 2
0#
#3150
b10000000000000000000000000000000 "
b10000000000000000000000000000000 6
b10000000000000000000000000000000 !
b10000000000000000000000000000000 7
1#
#3200
b10000000000000000 +
b0 *
b10000000000000000 !
b10000000000000000 7
b10000 %
b10000 4
b1 "
b1 6
b0 $
b0 3
b11111111111111111111111111111111 )
b11111111111111111111111111111111 8
b0 (
b0 5
0'
b100000 2
0#
#3250
1#
#3300
b100000000000000000 +
b10 *
b100000000000000000 !
b100000000000000000 7
b10001 %
b10001 4
b10 "
b10 6
b1 $
b1 3
b10001 (
b10001 5
b10 /
b100001 2
0#
#3350
1#
#3400
b1000000000000000000 +
b100 *
b1000000000000000000 !
b1000000000000000000 7
b10010 %
b10010 4
b100 "
b100 6
b10 $
b10 3
b10010 (
b10010 5
b100010 2
0#
#3450
1#
#3500
b10000000000000000000 +
b1000 *
b10000000000000000000 !
b10000000000000000000 7
b10011 %
b10011 4
b1000 "
b1000 6
b11 $
b11 3
b10011 (
b10011 5
b100011 2
0#
#3550
1#
#3600
b100000000000000000000 +
b10000 *
b100000000000000000000 !
b100000000000000000000 7
b10100 %
b10100 4
b10000 "
b10000 6
b100 $
b100 3
b10100 (
b10100 5
b100100 2
0#
#3650
1#
#3700
b1000000000000000000000 +
b100000 *
b1000000000000000000000 !
b1000000000000000000000 7
b10101 %
b10101 4
b100000 "
b100000 6
b101 $
b101 3
b10101 (
b10101 5
b100101 2
0#
#3750
1#
#3800
b10000000000000000000000 +
b1000000 *
b10000000000000000000000 !
b10000000000000000000000 7
b10110 %
b10110 4
b1000000 "
b1000000 6
b110 $
b110 3
b110 (
b110 5
b100110 2
0#
#3850
1#
#3900
b100000000000000000000000 +
b10000000 *
b100000000000000000000000 !
b100000000000000000000000 7
b10111 %
b10111 4
b10000000 "
b10000000 6
b111 $
b111 3
b111 (
b111 5
b100111 2
0#
#3950
1#
#4000
b1000000000000000000000000 +
b100000000 *
b1000000000000000000000000 !
b1000000000000000000000000 7
b11000 %
b11000 4
b100000000 "
b100000000 6
b1000 $
b1000 3
b11000 (
b11000 5
b101000 2
0#
#4050
1#
#4100
b10000000000000000000000000 +
b1000000000 *
b10000000000000000000000000 !
b10000000000000000000000000 7
b11001 %
b11001 4
b1000000000 "
b1000000000 6
b1001 $
b1001 3
b11001 (
b11001 5
b101001 2
0#
#4150
1#
#4200
b100000000000000000000000000 +
b10000000000 *
b100000000000000000000000000 !
b100000000000000000000000000 7
b11010 %
b11010 4
b10000000000 "
b10000000000 6
b1010 $
b1010 3
b1010 (
b1010 5
b101010 2
0#
#4250
1#
#4300
b1000000000000000000000000000 +
b100000000000 *
b1000000000000000000000000000 !
b1000000000000000000000000000 7
b11011 %
b11011 4
b100000000000 "
b100000000000 6
b1011 $
b1011 3
b11011 (
b11011 5
b101011 2
0#
#4350
1#
#4400
b10000000000000000000000000000 +
b1000000000000 *
b10000000000000000000000000000 !
b10000000000000000000000000000 7
b11100 %
b11100 4
b1000000000000 "
b1000000000000 6
b1100 $
b1100 3
b1100 (
b1100 5
b101100 2
0#
#4450
1#
#4500
b100000000000000000000000000000 +
b10000000000000 *
b100000000000000000000000000000 !
b100000000000000000000000000000 7
b11101 %
b11101 4
b10000000000000 "
b10000000000000 6
b1101 $
b1101 3
b1101 (
b1101 5
b101101 2
0#
#4550
1#
#4600
b1000000000000000000000000000000 +
b100000000000000 *
b1000000000000000000000000000000 !
b1000000000000000000000000000000 7
b11110 %
b11110 4
b100000000000000 "
b100000000000000 6
b1110 $
b1110 3
b1110 (
b1110 5
b101110 2
0#
#4650
1#
#4700
b10000000000000000000000000000000 +
b1000000000000000 *
b10000000000000000000000000000000 !
b10000000000000000000000000000000 7
b11111 %
b11111 4
b1000000000000000 "
b1000000000000000 6
b1111 $
b1111 3
b11111 (
b11111 5
b101111 2
0#
#4750
1#
#4800
b0 +
b0 *
b10000000000000000 !
b10000000000000000 7
b10000 %
b10000 4
b1 "
b1 6
b0 $
b0 3
b10000 (
b10000 5
1&
b110000 2
0#
#4850
b0 !
b0 7
b0 "
b0 6
b100000 9
1#
#4900
b10001 %
b10001 4
b1 $
b1 3
b1 (
b1 5
0&
b110001 2
0#
#4950
1#
#5000
b10010 %
b10010 4
b10 $
b10 3
b10010 (
b10010 5
b110010 2
0#
#5050
1#
#5100
b10011 %
b10011 4
b11 $
b11 3
b10011 (
b10011 5
b110011 2
0#
#5150
1#
#5200
b10100 %
b10100 4
b100 $
b100 3
b100 (
b100 5
b110100 2
0#
#5250
1#
#5300
b10101 %
b10101 4
b101 $
b101 3
b101 (
b101 5
b110101 2
0#
#5350
1#
#5400
b10110 %
b10110 4
b110 $
b110 3
b110 (
b110 5
b110110 2
0#
#5450
1#
#5500
b10111 %
b10111 4
b111 $
b111 3
b111 (
b111 5
b110111 2
0#
#5550
1#
#5600
b11000 %
b11000 4
b1000 $
b1000 3
b1000 (
b1000 5
b111000 2
0#
#5650
1#
#5700
b11001 %
b11001 4
b1001 $
b1001 3
b1001 (
b1001 5
b111001 2
0#
#5750
1#
#5800
b11010 %
b11010 4
b1010 $
b1010 3
b1010 (
b1010 5
b111010 2
0#
#5850
1#
#5900
b11011 %
b11011 4
b1011 $
b1011 3
b11011 (
b11011 5
b111011 2
0#
#5950
1#
#6000
b11100 %
b11100 4
b1100 $
b1100 3
b1100 (
b1100 5
b111100 2
0#
#6050
1#
#6100
b11101 %
b11101 4
b1101 $
b1101 3
b11101 (
b11101 5
b111101 2
0#
#6150
1#
#6200
b11110 %
b11110 4
b1110 $
b1110 3
b1110 (
b1110 5
b111110 2
0#
#6250
1#
#6300
b11111 %
b11111 4
b1111 $
b1111 3
b1111 (
b1111 5
b111111 2
0#
#6350
1#
#6400
b11111111111111111111111111111111 1
b1000000 2
0#
